Understanding sensitive social issues on CRVS in Burkina Faso through language use: A Machine Learning Approach
…
lda_publications_birth_topics <- 
  lda_publications_birth %>%
  tidy(matrix = "beta" )

lda_publications_birth_topics %>%
arrange(desc(beta))

## # A tibble: 4,024 x 3
##    topic term              beta
##    <int> <chr>            <dbl>
##  1     2 enregistrement 0.0346 
##  2     2 droit          0.0160 
##  3     1 centre         0.0133 
##  4     1 icivil         0.00978
##  5     1 opration      0.00978
##  6     2 programme      0.00935
##  7     2 centre         0.00819
##  8     1 millions       0.00712
##  9     2 autres         0.00625
## 10     2 femme          0.00625
## #  with 4,014 more rows
…
lda_publications_topics_marriage <- 
  lda_publications_marriage %>%
  tidy(matrix = "beta" )

lda_publications_topics_marriage %>%
arrange(desc(beta))

## # A tibble: 6,548 x 3
##    topic term       beta
##    <int> <chr>     <dbl>
##  1     2 femme   0.0254 
##  2     1 couple  0.0154 
##  3     1 mairie  0.0154 
##  4     2 jeunes  0.0120 
##  5     2 homme   0.0112 
##  6     2 famille 0.00950
##  7     2 choix   0.00853
##  8     2 couple  0.00776
##  9     2 entre   0.00699
## 10     1 devant  0.00698
## #  with 6,538 more rows
…
